{
    "track": "cpp",
    "exercise": "binary",
    "id": "657139530c2f4d959407ee58b3adf00d",
    "url": "https://exercism.io/tracks/cpp/exercises/binary/solutions/657139530c2f4d959407ee58b3adf00d",
    "handle": "heptalophos",
    "is_requester": true,
    "auto_approve": false
}